# Blender MTL File: 'None'
# Material Count: 4

newmtl Mat.000
Ns 94.117647
Ka 1.000000 1.000000 1.000000
Kd 0.232500 0.235417 0.250000
Ks 0.500000 0.500000 0.500000
Ke 0.000000 0.000000 0.000000
Ni 1.450000
d 1.000000
illum 2

newmtl Mat.001
Ns 94.117647
Ka 1.000000 1.000000 1.000000
Kd 0.910000 0.430369 0.003476
Ks 0.500000 0.500000 0.500000
Ke 0.000000 0.000000 0.000000
Ni 1.450000
d 1.000000
illum 2

newmtl blue.000
Ns 94.117647
Ka 1.000000 1.000000 1.000000
Kd 0.001821 0.752942 0.799103
Ks 0.500000 0.500000 0.500000
Ke 0.000000 0.000000 0.000000
Ni 1.450000
d 1.000000
illum 2

newmtl metal.000
Ns 94.117647
Ka 1.000000 1.000000 1.000000
Kd 0.334324 0.334324 0.334324
Ks 0.500000 0.500000 0.500000
Ke 0.000000 0.000000 0.000000
Ni 1.450000
d 1.000000
illum 2
